{
  "IdCustomer": 2,

  "ConnectionTransactionStringMaster": "Password=4545;Persist Security Info=True;User ID=sa;Initial Catalog=MasterFluxData;Data Source=Romanosh\\MSSQLSERVER5",
  "ConnectionTransactionStringSlave": "Password=matheus;Persist Security Info=True;User ID=sa;Initial Catalog=MasterFluxData;Data Source=MATHEUSPC\\LOCALSERVER",

  "ConnectionClientStringMaster": "Password=4545;Persist Security Info=True;User ID=sa;Initial Catalog=ClientFluxData;Data Source=Romanosh\\MSSQLSERVER5",
  "ConnectionClientStringSlave": "Password=matheus;Persist Security Info=True;User ID=sa;Initial Catalog=ClientFluxData;Data Source=MATHEUSPC\\LOCALSERVER"
}
 
 


